\relax 
\providecommand\hyper@newdestlabel[2]{}
\providecommand*\new@tpo@label[2]{}
\catcode `"\active 
\providecommand\HyperFirstAtBeginDocument{\AtBeginDocument}
\HyperFirstAtBeginDocument{\ifx\hyper@anchor\@undefined
\global\let\oldcontentsline\contentsline
\gdef\contentsline#1#2#3#4{\oldcontentsline{#1}{#2}{#3}}
\global\let\oldnewlabel\newlabel
\gdef\newlabel#1#2{\newlabelxx{#1}#2}
\gdef\newlabelxx#1#2#3#4#5#6{\oldnewlabel{#1}{{#2}{#3}}}
\AtEndDocument{\ifx\hyper@anchor\@undefined
\let\contentsline\oldcontentsline
\let\newlabel\oldnewlabel
\fi}
\fi}
\global\let\hyper@last\relax 
\gdef\HyperFirstAtBeginDocument#1{#1}
\providecommand\HyField@AuxAddToFields[1]{}
\providecommand\HyField@AuxAddToCoFields[2]{}
\pgfsyspdfmark {pgfid1}{4736286}{50644710}
\babel@aux{ngerman}{}
\@writefile{toc}{\contentsline {section}{\numberline {1}Demo 28.11}{1}{section.1}}
\@writefile{toc}{\contentsline {section}{\numberline {2}Irish-Night 29.11}{1}{section.2}}
\@writefile{toc}{\contentsline {section}{\numberline {3}Gl\IeC {\"u}hweinverkauf 04. + 11. 18.12.}{1}{section.3}}
\pgfsyspdfmark {pgfid2}{4736286}{50644710}
\@writefile{toc}{\contentsline {section}{\numberline {4}Metverkauf beim stud. Weihnachtsmarkt 13.12.}{2}{section.4}}
\@writefile{toc}{\contentsline {section}{\numberline {5}Weihnachtsfeier 11.12}{2}{section.5}}
\@writefile{toc}{\contentsline {section}{\numberline {6}Silvesterparty}{2}{section.6}}
\@writefile{toc}{\contentsline {section}{\numberline {7}Sonstiges}{2}{section.7}}
\@writefile{toc}{\contentsline {section}{\numberline {8}Termin der n\IeC {\"a}chsten Sitzung}{2}{section.8}}
