\babel@toc {ngerman}{}
\contentsline {section}{\numberline {1}Begr\IeC {\"u}\IeC {\ss }ung}{2}
\contentsline {section}{\numberline {2}Feststellung der Beschlussf\IeC {\"a}higkeit}{2}
\contentsline {section}{\numberline {3}Sonstiges}{2}
\contentsline {section}{\numberline {4}Anwesenheit}{3}
