\relax 
\providecommand\hyper@newdestlabel[2]{}
\providecommand*\new@tpo@label[2]{}
\catcode `"\active 
\providecommand\HyperFirstAtBeginDocument{\AtBeginDocument}
\HyperFirstAtBeginDocument{\ifx\hyper@anchor\@undefined
\global\let\oldcontentsline\contentsline
\gdef\contentsline#1#2#3#4{\oldcontentsline{#1}{#2}{#3}}
\global\let\oldnewlabel\newlabel
\gdef\newlabel#1#2{\newlabelxx{#1}#2}
\gdef\newlabelxx#1#2#3#4#5#6{\oldnewlabel{#1}{{#2}{#3}}}
\AtEndDocument{\ifx\hyper@anchor\@undefined
\let\contentsline\oldcontentsline
\let\newlabel\oldnewlabel
\fi}
\fi}
\global\let\hyper@last\relax 
\gdef\HyperFirstAtBeginDocument#1{#1}
\providecommand\HyField@AuxAddToFields[1]{}
\providecommand\HyField@AuxAddToCoFields[2]{}
\providecommand\BKM@entry[2]{}
\BKM@entry{id=1,dest={73656374696F6E2E31},srcline={29}}{4645494E657320435446}
\BKM@entry{id=2,dest={73656374696F6E2E32},srcline={31}}{4B6E656970656E746F7572}
\BKM@entry{id=3,dest={73656374696F6E2E33},srcline={33}}{536F6E737469676573}
\BKM@entry{id=4,dest={73656374696F6E2E34},srcline={37}}{5465726D696E20646572206E5C33343463687374656E205369747A756E67}
\pgfsyspdfmark {pgfid1}{4736286}{50644710}
\babel@aux{ngerman}{}
\@writefile{toc}{\contentsline {section}{\numberline {1}FEINes CTF}{1}{section.1}\protected@file@percent }
\@writefile{toc}{\contentsline {section}{\numberline {2}Kneipentour}{1}{section.2}\protected@file@percent }
\@writefile{toc}{\contentsline {section}{\numberline {3}Sonstiges}{1}{section.3}\protected@file@percent }
\@writefile{toc}{\contentsline {section}{\numberline {4}Termin der n\IeC {\"a}chsten Sitzung}{1}{section.4}\protected@file@percent }
