\relax 
\providecommand*\new@tpo@label[2]{}
\catcode `"\active 
\pgfsyspdfmark {pgfid1}{4736286}{50644710}
\babel@aux{ngerman}{}
\@writefile{toc}{\contentsline {section}{\numberline {1}Demo 21.11 10:00 - 16:00}{1}}
\@writefile{toc}{\contentsline {section}{\numberline {2}Fachschaft Augenoptik/H\IeC {\"o}rakkustik}{1}}
\@writefile{toc}{\contentsline {section}{\numberline {3}Irish-Night}{1}}
\@writefile{toc}{\contentsline {section}{\numberline {4}Gl\IeC {\"u}hweinverkauf}{1}}
\@writefile{toc}{\contentsline {section}{\numberline {5}Weihnachtsfeier}{1}}
\pgfsyspdfmark {pgfid2}{4736286}{50644710}
\@writefile{toc}{\contentsline {section}{\numberline {6}Silversterparty}{2}}
\@writefile{toc}{\contentsline {section}{\numberline {7}Sonstiges}{2}}
\@writefile{toc}{\contentsline {section}{\numberline {8}Termin der n\IeC {\"a}chsten Sitzung}{2}}
