\relax 
\providecommand*\new@tpo@label[2]{}
\catcode `"\active 
\pgfsyspdfmark {pgfid1}{4736286}{50644710}
\select@language{ngerman}
\@writefile{toc}{\select@language{ngerman}}
\@writefile{lof}{\select@language{ngerman}}
\@writefile{lot}{\select@language{ngerman}}
\@writefile{toc}{\contentsline {section}{\numberline {1}RockN8}{1}}
\@writefile{toc}{\contentsline {section}{\numberline {2}Halloween Party}{1}}
\@writefile{toc}{\contentsline {section}{\numberline {3}Irish Night}{1}}
\@writefile{toc}{\contentsline {section}{\numberline {4}Website/Server}{1}}
\@writefile{toc}{\contentsline {section}{\numberline {5}KIF Frankfurt}{1}}
\pgfsyspdfmark {pgfid2}{4736286}{50644710}
\@writefile{toc}{\contentsline {section}{\numberline {6}Petition}{2}}
\@writefile{toc}{\contentsline {section}{\numberline {7}35C3 Hackertreff 27.12. - 30.12}{2}}
\@writefile{toc}{\contentsline {section}{\numberline {8}Vollversammlung 13.11. 17:30 Aquarium}{2}}
\@writefile{toc}{\contentsline {section}{\numberline {9}Verbesserungsvorschl\IeC {\"a}ge f\IeC {\"u}r Liebschner}{2}}
\@writefile{toc}{\contentsline {section}{\numberline {10}Weihnachtsfeier}{2}}
\@writefile{toc}{\contentsline {section}{\numberline {11}Gl\IeC {\"u}hweinverkauf}{2}}
\@writefile{toc}{\contentsline {section}{\numberline {12}Weihnachtsmarkt}{2}}
\@writefile{toc}{\contentsline {section}{\numberline {13}Sonstiges}{2}}
\@writefile{toc}{\contentsline {section}{\numberline {14}Termin der n\IeC {\"a}chsten Sitzung}{2}}
